{
  "type": "service_account",
  "project_id": "traininfo-8a4c2",
  "private_key_id": "d189db168ce2384b003ddef60bf0453c841dcfa6",
  "private_key": "-----BEGIN PRIVATE KEY-----\nMIIEvgIBADANBgkqhkiG9w0BAQEFAASCBKgwggSkAgEAAoIBAQChHXvo9HggbwHs\nRdUejY9QpS91MnK4K/W6MZ3MiwP4jWLMX+QHLwylkVQ1Pj2dCDgpqO+MvU1+39Vy\nkL9zM1lhmyZxbMP2XgMd+wCEkGqT7vB7kA16vZ363dNFpRMtRrHUcvfrNBI+mval\ngo9lfHXh7bC5ztsl2qApjHttPgOdbEHROVW1WiEXGA20OyY9iExzqx+xTgqbMvs6\nO6Z7lwBo01cNtNpOWH72Xe34p0iCz4ZczIs8VOKQYbHR3Fo1T3p/6uMj8jXMeeV/\nWdA6b8QQjE+MA1sCBq2lcgznvssSvjrpNCOcoUkCwskKQfKkAGK5n/Qy4XIOyPRj\nkat5FOxbAgMBAAECggEACpVWO2I7td204aFgs4YXAPQo3uj2cjSpCpcRx4rmMuCO\nueAeqX4ktYeLYYf6IiOVFN99BOC2g3wOmFz7xoR7/ZZkexTq9ncMe16ulQariZYr\ng+JdkE9+XilOJIgIb3PyYINA19luzV/+jba61q7LS5ECh+IXsS/gT3pj7TQipqeI\nKAUBlHiIamXm3+QzqXmqqgPvD3TAYWuOwLusJ5Qu5Nfsayjg5PftfRt9hwM/2l3G\nyj59Ikdd2K6Wm2idCqoEwYDTfJQa8fQkskMtCbyd/mf4N73z/sb73Q0rIXzkso1e\nw1UzWW2ci3InvJWC7GHBKvAsMilvVXRk6gcAqHZhiQKBgQDOLLIau7Wew7CVWEWO\ncTwF9GkL9FzNMfnTiFCdTWQM1tBCL4N5l/HmRMlBaQ5IqN9rziqFB1Wj+f5jQskx\n9Gwf0i1F+aZHepF/UlwhrvGCxMGrIxTiwvrf0o/SFzywICDSb+wOYMq2tz7IqqIZ\nd7eh7BYAQoPLxtLvIPm862pX5wKBgQDIDR5qhPbRAMmSiVPA97A6n3P2372xW+gX\nzOPoGkIHEtNf2Wr/MqKhMffxsI4Q0mhkxOiWbN1140BS5mq5NuTvT95/w9yFPZC1\nPbVahmZOb8VA0mngcj9Sm9EIhuNhVCJ5QsDvrGi9Z3t8rCReBpohCWaQE3j5a7dS\nXLQyYEqpbQKBgQCgHKfICQQ3ooMsx9tkjl1txmwZw5CaLfh0pQTt1B8htWUQMTPq\nJuzNxZeBu6NDHBo972Kn4pVIfalnzoLOz6F0aNWN5R2TnwUFGqG/6stVoZVBYUIk\nBAWt8iiMoE0Z/ilfI1nvpI1orhAM6C5wlr89+UjwtLcDdoly+WnYo/32+wKBgQCK\njkOFxUfpZCE4Y/LlUOf3Al9gGoEYqS4r5dXn+N/IZGqQFVb9H8Xx3Vj8RatvzTtO\np+7r2MTeFKKFiF9cnr+bXHcfiLlgc06ZqP7FjxamttUo21NHh/mBrrftrvcnfw1N\nbUWR+pikrlqh89xQX0Q7I3aszT/ZiJh07A5GYdj0VQKBgE2vFomlnk1AjhQeUhS0\nIqNH3onL+ZKxrB9+nV5CYNQa0MS44TtxM6jkIe8sb/4Yb2dw52LL0PeIEp4CSsk9\niKPxv4exmjhfb0gDzKc7MNr8VjZyIMXADdCmTqz38m3mi6ZKBL+EMt/T6Nh6TBO1\nYGA5LvAh0kjUg06Zk87lwCVe\n-----END PRIVATE KEY-----\n",
  "client_email": "firebase-adminsdk-k50n5@traininfo-8a4c2.iam.gserviceaccount.com",
  "client_id": "113299091740709335897",
  "auth_uri": "https://accounts.google.com/o/oauth2/auth",
  "token_uri": "https://oauth2.googleapis.com/token",
  "auth_provider_x509_cert_url": "https://www.googleapis.com/oauth2/v1/certs",
  "client_x509_cert_url": "https://www.googleapis.com/robot/v1/metadata/x509/firebase-adminsdk-k50n5%40traininfo-8a4c2.iam.gserviceaccount.com"
}
